…
``` r
vote_80_20_new <- vote_80_20 %>%
  filter(state != "District of Columbia") %>%
  pivot_longer(cols = starts_with("pctdem"), 
               names_to = "Year", 
               values_to = "vote_pct")%>%
  select(state, stateid, Year, vote_pct)%>%
  mutate(Year = str_extract(Year, "\\d{4}")) %>%
  print(n = 15)
```

</details>

    # A tibble: 550 × 4
       state   stateid Year  vote_pct
       <chr>   <chr>   <chr>    <dbl>
     1 Alabama AL      1980     0.493
     2 Alabama AL      1984     0.387
     3 Alabama AL      1988     0.403
     4 Alabama AL      1992     0.462
     5 Alabama AL      1996     0.463
     6 Alabama AL      2000     0.424
     7 Alabama AL      2004     0.371
     8 Alabama AL      2008     0.391
     9 Alabama AL      2012     0.388
    10 Alabama AL      2016     0.356
    11 Alabama AL      2020     0.366
    12 Alaska  AK      1980     0.327
    13 Alaska  AK      1984     0.309
    14 Alaska  AK      1988     0.378
    15 Alaska  AK      1992     0.434
    # ℹ 535 more rows
…
