…
``` r
# group some tasks to simplify visualization & bin procrastination times into 5 categories
my_procras_final <- my_procras %>%
  mutate(task = case_when(task %in% c("cook", "tidy") ~ "chores", 
                          task %in% c("career", "admin")~ "admin+",
                          TRUE ~ task))%>%
  mutate(procrastinat_bin = cut(procrastinat,
                                breaks = c(0, 1, 30, 60, 120, 200),
                                right = FALSE,
                                labels = c("None", "<30", "<60", "<120", "120+")))
```

Here is a glance at the final table I worked with:

    # A tibble: 51 × 5
       day       time   task       social procrastinat_bin
       <chr>     <time> <chr>       <dbl> <fct>           
     1 Monday    10:00  out_bed         0 None            
     2 Monday    10:30  admin+          0 None            
     3 Monday    10:45  chores          0 None            
     4 Monday    12:15  chores          0 None            
     5 Monday    12:45  work            0 None            
     6 Monday    15:30  work            0 None            
     7 Monday    17:10  work            0 None            
     8 Monday    21:30  chores          1 <60             
     9 Monday    22:45  chores          1 <30             
    10 Monday    23:30  work            0 None            
    11 Tuesday   01:30  lights_off      0 None            
    12 Tuesday   08:00  out_bed         0 None            
    13 Tuesday   08:30  chores          0 None            
    14 Tuesday   09:30  work            0 None            
    15 Tuesday   13:00  work            0 None            
    16 Tuesday   14:15  admin+          0 None            
    17 Tuesday   16:00  work            1 <30             
    18 Tuesday   20:00  chores          1 <120            
    19 Tuesday   22:00  admin+          0 <NA>            
    20 Wednesday 01:30  lights_off      0 None            
    # … with 31 more rows
…
