Graphing single variables [Assignment #3]
…
Question 3 - Comparing charts

In the dataset I just loaded, the variable I will plot using different geometries is the percentage of internet users in 2021. This variable is continuous.

Code

#select variable & filter out NAs
internet_users_2021 <- internet_users%>%
  mutate(value_2021 = round(internet_users$`2021_value`, 0),
         value_2021_perc = value_2021 / 100)%>%
  select("Economy", value_2021, value_2021_perc)%>%
  filter(!is.na(value_2021))%>%
  print(n=10)

# A tibble: 182 × 3
   Economy             value_2021 value_2021_perc
   <chr>                    <dbl>           <dbl>
 1 Albania                     79            0.79
 2 Algeria                     71            0.71
 3 Andorra                     94            0.94
 4 Angola                      33            0.33
 5 Antigua and Barbuda         96            0.96
 6 Argentina                   87            0.87
 7 Armenia                     79            0.79
 8 Australia                   96            0.96
 9 Austria                     93            0.93
10 Azerbaijan                  86            0.86
# … with 172 more rows
…
